^C:\USERS\PG17BISHWAJIT\SOURCE\REPOS\C++\ENGINEXFORSTUDENT\GAMEENGINEX.RC
C:\USERS\PG17BISHWAJIT\SOURCE\REPOS\C++\ENGINEXFORSTUDENT\OUTGAME\GAMEENGINEX.RES
^C:\USERS\BISHW\SOURCE\REPOS\PONG GAME\PONG GAME\ENGINEXFORSTUDENT\GAMEENGINEX.RC
C:\USERS\BISHW\SOURCE\REPOS\PONG GAME\PONG GAME\ENGINEXFORSTUDENT\OUTGAME\GAMEENGINEX.RES
